{
  "project_info": {
    "project_number": "480567986613",
    "project_id": "nike-app-9462d",
    "storage_bucket": "nike-app-9462d.appspot.com"
  },
  "client": [
    {
      "client_info": {
        "mobilesdk_app_id": "1:480567986613:android:f509991e450a984ec9f1fc",
        "android_client_info": {
          "package_name": "com.uda.nam54882.nike_app_clone"
        }
      },
      "oauth_client": [
        {
          "client_id": "480567986613-v3dnegmhjseuo6t8nu4o5mvebe9qlcm9.apps.googleusercontent.com",
          "client_type": 1,
          "android_info": {
            "package_name": "com.uda.nam54882.nike_app_clone",
            "certificate_hash": "046b6535f385460342788c029c0170358d6ea8de"
          }
        },
        {
          "client_id": "480567986613-c547tnnj3fga9h6a7seu4i774e7vsecj.apps.googleusercontent.com",
          "client_type": 3
        }
      ],
      "api_key": [
        {
          "current_key": "AIzaSyBI_6PvR1fX_Lo9lL4wcQmll6EMAC1Rhmk"
        }
      ],
      "services": {
        "appinvite_service": {
          "other_platform_oauth_client": [
            {
              "client_id": "480567986613-c547tnnj3fga9h6a7seu4i774e7vsecj.apps.googleusercontent.com",
              "client_type": 3
            }
          ]
        }
      }
    }
  ],
  "configuration_version": "1"
}